Purrr for Data Validation – Aaron’s Coding and Data Science Blog
…
In my case, I periodically received new data, and I wanted to validate them after arrival to get a sense of reliability and readiness. I needed to test certain fields to determine if their values made sense and were analytically useful. I would run a set of tests on each value in the dataset in order to:

determine what subset of the data was OK to use right away,

judge whether the dataset as a whole was ok to use,

and decide whether I would need to contact the data provider to address any quality issues.

Many tests would be sanity checks, whether a datapoint fell between a lower and upper bound, among others. Others could be more complex. And each field would require its own set of validation tests, sometimes fairly unique to that field.

Example Data

I’ll use iris as the example dataset. It’s got four decimal fields and one factor field per observation.

# A tibble: 150 × 6
   id    Sepal.Length Sepal.Width Petal.Length Petal.Width Species
   <chr>        <dbl>       <dbl>        <dbl>       <dbl> <fct>  
 1 1              5.1         3.5          1.4         0.2 setosa 
 2 2              4.9         3            1.4         0.2 setosa 
 3 3              4.7         3.2          1.3         0.2 setosa 
 4 4              4.6         3.1          1.5         0.2 setosa 
 5 5              5           3.6          1.4         0.2 setosa 
 6 6              5.4         3.9          1.7         0.4 setosa 
 7 7              4.6         3.4          1.4         0.3 setosa 
 8 8              5           3.4          1.5         0.2 setosa 
 9 9              4.4         2.9          1.4         0.2 setosa 
10 10             4.9         3.1          1.5         0.1 setosa 
# ℹ 140 more rows
…
As you can see, Each field-test’s field name, test name, code, and results are all tied together in a row.

And of course, we can then unnest our results into our desired tabular output:

field_tests_with_results %>% 
  select(field, test, results) %>% 
  unnest(results)

# A tibble: 750 × 4
   field        test       id    result
   <chr>        <chr>      <chr> <lgl> 
 1 Sepal.Length is_missing 1     FALSE 
 2 Sepal.Length is_missing 2     FALSE 
 3 Sepal.Length is_missing 3     FALSE 
 4 Sepal.Length is_missing 4     FALSE 
 5 Sepal.Length is_missing 5     FALSE 
 6 Sepal.Length is_missing 6     FALSE 
 7 Sepal.Length is_missing 7     FALSE 
 8 Sepal.Length is_missing 8     FALSE 
 9 Sepal.Length is_missing 9     FALSE 
10 Sepal.Length is_missing 10    FALSE 
# ℹ 740 more rows
…
tests <- names(field_test_functions_list[[fields[2]]])

field_test_functions_list[[fields[2]]][[tests[1]]]

function(data) {
      data %>% 
        mutate(result = is.na(Sepal.Width)) %>% 
        select(id, result)
    }
<bytecode: 0x1381a4318>

field_test_results[[fields[2]]][[tests[1]]]

# A tibble: 150 × 2
   id    result
   <chr> <lgl> 
 1 1     FALSE 
 2 2     FALSE 
 3 3     FALSE 
 4 4     FALSE 
 5 5     FALSE 
 6 6     FALSE 
 7 7     FALSE 
 8 8     FALSE 
 9 9     FALSE 
10 10    FALSE 
# ℹ 140 more rows
…
